Hodan Abdirahman
…
        Data Analyst

          Contact Me

        Exploring Racial Disparities in Student Loan Debt

	By Hodan Abdirahman

        In this project, we delve into the complex dynamics of student loan debt and its impact on different racial groups. Student loan debt has become a significant concern in today's society, affecting millions of individuals striving for higher education. However, it is crucial to recognize that the burden of student loans may not be evenly distributed among racial groups.

	Throughout this analysis, we will leverage the capabilities of R to explore and visualize the data, aiming to uncover patterns and trends related to student loan debt among different racial groups. 

## # A tibble: 30 x 4
##     year race     loan_debt loan_debt_pct
##    <dbl> <chr>        <dbl>         <dbl>
##  1  2016 White       11108.         0.337
##  2  2016 Black       14225.         0.418
##  3  2016 Hispanic     7494.         0.219
##  4  2013 White        8364.         0.285
##  5  2013 Black       10303.         0.412
##  6  2013 Hispanic     3177.         0.157
##  7  2010 White        8042.         0.280
##  8  2010 Black        9510.         0.321
##  9  2010 Hispanic     3089.         0.144
## 10  2007 White        5264.         0.197
## # … with 20 more rows
…
